{
    "Airport": [
        {
            "name": "Northwest Field Airport",
            "type": "Airport",
            "id": 0,
            "origin_x": 119,
            "origin_y": 174,
            "origin_z": 97,
            "entrance_x": 123,
            "entrance_y": 175,
            "entrance_z": 97,
            "airport_code": "NWF",
            "north_facing": false,
            "orientation": 3,
            "takeoff": "(119, 174, 97)",
            "land": "(120, 173, 97)",
            "width": 5,
            "length": 2,
            "clearance": 10
        },
        {
            "name": "Northeast Field Airport",
            "type": "Airport",
            "id": 1,
            "origin_x": 326,
            "origin_y": 12,
            "origin_z": 108,
            "entrance_x": 327,
            "entrance_y": 16,
            "entrance_z": 108,
            "airport_code": "NEF",
            "north_facing": true,
            "orientation": 5,
            "takeoff": "(326, 12, 108)",
            "land": "(325, 13, 108)",
            "width": 2,
            "length": 5,
            "clearance": 10
        },
        {
            "name": "Southeast Field Airport",
            "type": "Airport",
            "id": 2,
            "origin_x": 260,
            "origin_y": 322,
            "origin_z": 92,
            "entrance_x": 264,
            "entrance_y": 323,
            "entrance_z": 92,
            "airport_code": "SEF",
            "north_facing": false,
            "orientation": 3,
            "takeoff": "(260, 322, 92)",
            "land": "(261, 321, 92)",
            "width": 5,
            "length": 2,
            "clearance": 10
        }
    ],
    "Flight Tower": [
        {
            "name": "Northwest Field Airport Flight Tower",
            "type": "Flight Tower",
            "id": 0,
            "origin_x": 124,
            "origin_y": 175,
            "origin_z": 97,
            "entrance_x": 0,
            "entrance_y": 0,
            "entrance_z": 0,
            "airport": "Northwest Field Airport",
            "height": 5
        },
        {
            "name": "Northeast Field Airport Flight Tower",
            "type": "Flight Tower",
            "id": 1,
            "origin_x": 327,
            "origin_y": 17,
            "origin_z": 108,
            "entrance_x": 0,
            "entrance_y": 0,
            "entrance_z": 0,
            "airport": "Northeast Field Airport",
            "height": 5
        },
        {
            "name": "Southeast Field Airport Flight Tower",
            "type": "Flight Tower",
            "id": 2,
            "origin_x": 265,
            "origin_y": 323,
            "origin_z": 92,
            "entrance_x": 0,
            "entrance_y": 0,
            "entrance_z": 0,
            "airport": "Southeast Field Airport",
            "height": 5
        }
    ],
    "Firewatch Tower": [
        {
            "name": "Firewatch Tower 0",
            "type": "Firewatch Tower",
            "id": 0,
            "origin_x": 86,
            "origin_y": 414,
            "origin_z": 102,
            "entrance_x": 86,
            "entrance_y": 413,
            "entrance_z": 102,
            "height": 5,
            "t_coverage": 1000,
            "t_range": 100
        },
        {
            "name": "Firewatch Tower 1",
            "type": "Firewatch Tower",
            "id": 1,
            "origin_x": 112,
            "origin_y": 362,
            "origin_z": 102,
            "entrance_x": 111,
            "entrance_y": 361,
            "entrance_z": 102,
            "height": 5,
            "t_coverage": 1000,
            "t_range": 100
        },
        {
            "name": "Firewatch Tower 2",
            "type": "Firewatch Tower",
            "id": 2,
            "origin_x": 82,
            "origin_y": 408,
            "origin_z": 101,
            "entrance_x": 82,
            "entrance_y": 407,
            "entrance_z": 101,
            "height": 5,
            "t_coverage": 1000,
            "t_range": 100
        }
    ],
    "Road": [
        {
            "name": "North County Road",
            "type": "Road",
            "id": 0,
            "origin_x": 123,
            "origin_y": 175,
            "origin_z": 97,
            "end_x": 111,
            "end_y": 361,
            "end_z": 102,
            "distance": 187
        },
        {
            "name": "North Valley Road",
            "type": "Road",
            "id": 1,
            "origin_x": 123,
            "origin_y": 175,
            "origin_z": 97,
            "end_x": 264,
            "end_y": 323,
            "end_z": 92,
            "distance": 151
        },
        {
            "name": "North Valley Highway",
            "type": "Road",
            "id": 2,
            "origin_x": 327,
            "origin_y": 16,
            "origin_z": 108,
            "end_x": 264,
            "end_y": 323,
            "end_z": 92,
            "distance": 308
        },
        {
            "name": "West Valley Road",
            "type": "Road",
            "id": 3,
            "origin_x": 86,
            "origin_y": 413,
            "origin_z": 102,
            "end_x": 82,
            "end_y": 407,
            "end_z": 101,
            "distance": 7
        },
        {
            "name": "South Valley Road",
            "type": "Road",
            "id": 4,
            "origin_x": 86,
            "origin_y": 413,
            "origin_z": 102,
            "end_x": 111,
            "end_y": 361,
            "end_z": 102,
            "distance": 53
        }
    ],
    "Flow": [
        {
            "name": "West County Brook",
            "type": "Flow",
            "id": 0,
            "origin_x": 21,
            "origin_y": 303,
            "origin_z": 127,
            "content": 3,
            "distance": 53,
            "moisture": 0.5,
            "seed": 0.010645139031112194,
            "freq": 0.5
        },
        {
            "name": "North Valley Stream",
            "type": "Flow",
            "id": 1,
            "origin_x": 317,
            "origin_y": 1,
            "origin_z": 108,
            "content": 3,
            "distance": 40,
            "moisture": 0.5,
            "seed": 0.010645139031112194,
            "freq": 0.5
        },
        {
            "name": "West County Brook",
            "type": "Flow",
            "id": 2,
            "origin_x": 87,
            "origin_y": 25,
            "origin_z": 93,
            "content": 3,
            "distance": 87,
            "moisture": 0.5,
            "seed": 0.010645139031112194,
            "freq": 0.5
        },
        {
            "name": "East County Creek",
            "type": "Flow",
            "id": 3,
            "origin_x": 418,
            "origin_y": 168,
            "origin_z": 117,
            "content": 3,
            "distance": 36,
            "moisture": 0.5,
            "seed": 0.010645139031112194,
            "freq": 0.5
        },
        {
            "name": "West Valley Creek",
            "type": "Flow",
            "id": 4,
            "origin_x": 242,
            "origin_y": 156,
            "origin_z": 127,
            "content": 3,
            "distance": 43,
            "moisture": 0.5,
            "seed": 0.010645139031112194,
            "freq": 0.5
        }
    ],
    "missions": [
        {
            "mission": "Provision the hiker",
            "agent": "maverick",
            "fuel_start": -1,
            "goal_1": "Find the hiker last located at (275, 4, 100)",
            "goal_2": "Provision the hiker with Radio, Medicine, and Water",
            "goal_3": "Return and report to Northwest International Airport (NWI) airport",
            "hiker": {
                "agent_visible": 2,
                "description": "",
                "location": "(286, 113, 99)",
                "name": "hiker",
                "screen_visible": 2,
                "type": 2
            },
            "map": "nixel-world",
            "start": {
                "agent_visible": 1,
                "description": "Northeast Plains Airport",
                "location": "(119, 174, 98)",
                "name": "start",
                "screen_visible": 2,
                "type": 1
            },
            "wind_direction": 7
        }
    ]
}