{
    "1": {
        "agent": "2_wright",
        "fuel_start": -1, 
        "goal_1": "Find the hiker last located at (39, 427).", 
        "goal_2": "Provision the hiker with Food.", 
        "goal_3": "Return and report to Southwest Regional (SWR) airport.", 
        "hiker": {
            "agent_visible": 2, 
            "description": "", 
            "location": "(40, 433)", 
            "name": "hiker", 
            "screen_visible": 2, 
            "type": 2
        }, 
        "map": "kingdom-base", 
        "mission": "Provision the hiker", 
        "start": {
            "agent_visible": 1, 
            "description": "SWR airport", 
            "location": "(12, 485)", 
            "name": "start", 
            "screen_visible": 2, 
            "type": 1
        }, 
        "wind_direction": 7,
        "aoi" : {
            corner : "(30,420)",
            x_extent : 20,
            y_extent: 20
        }
    }, 
    "2": {
        "agent": "2_wright",
        "fuel_start": -1, 
        "goal_1": "Find the hiker last located at (142, 465).", 
        "goal_2": "Provision the hiker with Food and Medicine.", 
        "goal_3": "Return and report to Southwest Regional (SWR) airport.", 
        "hiker": {
            "agent_visible": 2, 
            "description": "", 
            "location": "(138, 473)", 
            "name": "hiker", 
            "screen_visible": 2, 
            "type": 2
        }, 
        "map": "kingdom-base", 
        "mission": "Provision the hiker", 
        "start": {
            "agent_visible": 1, 
            "description": "SWR airport", 
            "location": "(12, 485)", 
            "name": "start", 
            "screen_visible": 2, 
            "type": 1
        }, 
        "wind_direction": 7,
        "aoi" : {
            corner : "(135,463)",
            x_extent : 20,
            y_extent: 20
        }
    }
}