{
    "suite": [
        {
            "pilot": "2_wright",
            "scenario": "pandora-base-A-1"
        }, 
        {
            "pilot": "2_wright",
            "scenario": "pandora-base-A-2"
        }
    ]
}