{
    "name": "COGLE Scenario Generator",
    "description": "Generates unique rural landscapes with interesting terrain for a ML agent to navigate.",
    "scenario_name": "valley-lakes",
    "width": 512,
    "length": 512,
    "height": 256,
    "wind_direction": 7,
    "region_point_count": 24,
    "region_points": [
        [
            334,
            236
        ],
        [
            458,
            24
        ],
        [
            290,
            421
        ],
        [
            416,
            13
        ],
        [
            98,
            490
        ],
        [
            453,
            422
        ],
        [
            348,
            215
        ],
        [
            183,
            388
        ],
        [
            295,
            33
        ],
        [
            345,
            426
        ],
        [
            396,
            347
        ],
        [
            258,
            290
        ],
        [
            228,
            476
        ],
        [
            31,
            192
        ],
        [
            7,
            491
        ],
        [
            369,
            489
        ],
        [
            284,
            482
        ],
        [
            54,
            181
        ],
        [
            10,
            432
        ],
        [
            144,
            13
        ],
        [
            124,
            370
        ],
        [
            65,
            231
        ],
        [
            220,
            408
        ],
        [
            391,
            197
        ]
    ],
    "dna_val": "['COGLE_0:valley-lakes_1:512_2:512_3:256_4:7_5:24|0.36023542284965515/Terrain_0:0_1:120_2:0.5_3:0.5_4:0.5_5:0.5_6:0.5_7:0.5_8:0.5_9:0.5_10:0.7_11:0.3_12:0.5_13:0.5_14:True/', '-0.43587446212768555/Ocean_0:60/', '-0.3501245081424713/River_0:0.5_1:5/', '0.6151155829429626/Biome_0:0.5_1:17.0_2:0.5_3:0.5_4:0.5_5:0.5_6:0.5_7:0.5_8:0.5_9:0.5/', '0.34627288579940796/Tree_0:100_1:20.0_2:0.5_3:0.5_4:0.5_5:0.5_6:0.5_7:0.5_8:0.5_9:0.5/', '0.31582069396972656/Airport_0:200.0_1:3_2:35_3:1000_4:[]/', '-0.061891376972198486/Building_0:4_1:200.0_2:[]_3:1000/', '-0.25830233097076416/Road_0:2_1:500/', '0.15140682458877563/DropPackageMission_0:1_3:Find the hiker last located at (489, 188, 94)_4:Provision the hiker with Radio, Radio, and Medicine_5:Return and report to Northwest International Airport (NWI) airport_6:Southwest Field Airport_7:Northwest International Airport_8:0_9:100.0_10:20.0_11:40.0/']",
    "generators": [
        {
            "name": "Terrain Layer Generator",
            "description": "Generates a height map with unique elevation features.",
            "priority": 0,
            "seed": 0.36023542284965515,
            "min_e": 0,
            "base_e": 120,
            "amp0": 0.5,
            "freq0": 0.5,
            "amp1": 0.5,
            "freq1": 0.5,
            "amp2": 0.5,
            "freq2": 0.5,
            "d_factor": 0.5,
            "dn_factor": 0.5,
            "e_factor": 0.5,
            "i_factor": 0.7,
            "n_factor": 0.3,
            "f_factor": 0.5
        },
        {
            "name": "Ocean Layer Generator",
            "description": "Fills in water around terrain at a determined sea level",
            "priority": 1,
            "seed": -0.43587446212768555,
            "ocean_level": 60
        },
        {
            "name": "River Layer Generator",
            "description": "Places rivers based on elevation and moisture intensity.",
            "priority": 3,
            "seed": -0.3501245081424713,
            "moisture_intensity": 0.5,
            "river_count": 5,
            "sources": [
                [
                    345,
                    426,
                    118
                ],
                [
                    65,
                    231,
                    119
                ],
                [
                    144,
                    13,
                    169
                ],
                [
                    391,
                    197,
                    117
                ],
                [
                    391,
                    197,
                    117
                ]
            ]
        },
        {
            "name": "Biome Layer Generator",
            "description": "Distributes moisture throughout world, setting up for special voxel assignment.",
            "priority": 4,
            "seed": 0.6151155829429626,
            "moisture_intensity": 0.5,
            "temperature": 17.0,
            "r_factor": 0.5,
            "wd_factor": 0.5,
            "amp0": 0.5,
            "freq0": 0.5,
            "amp1": 0.5,
            "freq1": 0.5,
            "amp2": 0.5,
            "freq2": 0.5
        },
        {
            "name": "Tree Layer Generator",
            "description": "Creates trees on appropriate voxels",
            "priority": 5,
            "seed": 0.34627288579940796,
            "num_seed_points": 100,
            "seed_power": 20.0,
            "amp0": 0.5,
            "freq0": 0.5,
            "amp1": 0.5,
            "freq1": 0.5,
            "amp2": 0.5,
            "freq2": 0.5,
            "amp3": 0.5,
            "freq3": 0.5
        },
        {
            "name": "Airport Layer Generator",
            "description": "Samples random spots and places airports in valid spaces.",
            "priority": 7,
            "seed": 0.31582069396972656,
            "airport_min_dist": 200.0,
            "num_airports": 3,
            "num_samples": 35,
            "sample_limit": 1000,
            "airport_positions": []
        },
        {
            "name": "Building Layer Generator",
            "description": "Randomly samples spaces in the world, placing buildings where appropriate.",
            "priority": 8,
            "seed": -0.061891376972198486,
            "num_towers": 4,
            "tower_min_dist": 200.0,
            "tower_positions": [],
            "tower_min_trees": 1000
        },
        {
            "name": "Road Layer Generator",
            "description": "Places roads that connect buildings that were placed in the world.",
            "priority": 9,
            "seed": -0.25830233097076416,
            "max_connections": 2,
            "max_road_length": 500
        },
        {
            "name": "Drop Package Mission Layer Generator",
            "description": "Generates mission metadata for a \"Find and provision the hiker\" scenario.",
            "priority": 10,
            "seed": 0.15140682458877563,
            "num_hikers": 1,
            "hiker_locations": [
                [
                    489,
                    188,
                    78
                ]
            ],
            "hiker_last_knowns": [
                [
                    450,
                    162,
                    103
                ]
            ],
            "mission_goal_1": "Find the hiker last located at (489, 188, 94)",
            "mission_goal_2": "Provision the hiker with Radio, Radio, and Medicine",
            "mission_goal_3": "Return and report to Northwest International Airport (NWI) airport",
            "starting_airport": "Southwest Field Airport",
            "ending_airport": "Northwest International Airport",
            "elevation_threshold": 0,
            "hiker_lost_distance": 100.0,
            "last_known_min_dist": 20.0,
            "last_known_max_dist": 40.0
        }
    ]
}